.
----------------------------------------------------------------------
Ran 3 tests in 0.001s

OK
Name             Stmts   Miss Branch BrPart  Cover   Missing
------------------------------------------------------------
Netflix.py          62      4     14      4    89%   26-29, 66, 22->26, 61->exit, 62->66, 69->exit
TestNetflix.py      54      8      2      0    82%   76-84
------------------------------------------------------------
TOTAL              116     12     16      4    86%
