10040:
3.38
2.91
3.66
1:
3.75
3.75
3.75
4.65
3.67
3.78
3.33
3.75
3.75
3.75
3.19
3.71
3.84
3.84
2.72
3.75
3.75
4.45
3.75
4.12
3.75
5.0
3.56
10:
3.18
3.14
1000:
3.6
3.28
3.0
5.0
4.03
4.39
3.28
4.28
3.28
3.28
3.28
3.28
3.28
4.06
4.27
3.28
3.28
3.28
3.42
3.28
3.85
4.27
3.28
3.28
3.91
3.44
3.66
10000:
2.9
3.69
10001:
3.8
4.0
3.69
3.8
3.8
3.8
3.8
3.8
3.8
3.8
4.01
3.92
3.8
4.06
3.8
3.69
4.26
10002:
4.5
3.48
4.95
4.74
10003:
2.46
10004:
4.55
3.56
4.2
4.2
4.2
3.96
4.44
4.2
4.2
4.2
4.2
3.44
3.82
3.61
4.79
4.05
4.2
4.2
4.2
3.89
4.2
4.2
4.2
4.2
4.78
3.29
3.86
4.2
3.45
4.17
4.02
10005:
3.96
3.91
3.24
3.24
3.24
10006:
3.82
4.01
4.78
3.2
10007:
2.53
2.53
3.0
2.53
2.88
2.53
3.63
2.53
2.53
3.31
2.53
2.53
3.46
10008:
4.25
3.56
3.58
3.2
3.56
3.56
3.56
10009:
3.43
3.29
4.21
3.29
3.29
3.29
1001:
3.65
3.58
3.6
3.31
3.31
3.31
3.31
3.31
3.21
3.31
3.64
3.31
3.31
3.31
3.68
3.31
3.31
3.31
2.52
3.31
3.31
3.31
3.31
3.14
3.28
3.26
3.63
3.59
3.31
3.31
3.65
5.0
3.31
3.74
3.31
3.55
3.89
3.11
3.3
3.69
3.83
3.29
3.64
3.31
3.9
3.69
3.31
3.31
3.44
3.89
3.31
2.56
2.8
4.03
3.82
4.44
3.39
3.31
3.31
3.31
3.57
3.31
3.31
3.31
3.86
3.25
3.51
3.31
3.85
3.55
3.31
3.37
3.31
3.31
3.31
3.31
2.89
3.02
3.84
3.31
3.86
3.31
3.02
3.41
3.31
3.31
3.31
3.91
3.55
3.31
4.33
3.31
3.31
3.71
3.31
3.09
3.27
4.45
3.57
3.69
3.31
3.31
3.31
3.31
3.31
3.53
3.31
4.2
3.66
3.1
3.29
3.31
3.31
3.27
3.49
3.09
3.29
3.88
3.69
3.31
3.44
3.54
3.31
3.31
3.31
3.31
3.31
3.31
3.73
3.43
3.31
3.31
3.63
3.18
10010:
3.02
2.39
2.39
3.4
2.39
3.02
3.61
2.39
2.66
3.17
2.39
2.39
2.39
2.39
2.39
2.39
2.39
3.85
2.39
2.39
2.73
2.39
2.39
10011:
4.27
3.72
10012:
3.11
4.52
3.29
3.11
3.11
4.27
3.11
3.11
3.11
3.11
3.11
3.11
3.11
10013:
3.67
3.28
3.28
3.67
3.28
3.28
3.28
3.28
3.28
3.75
3.16
4.39
3.47
3.28
3.28
3.28
3.28
3.28
3.45
3.28
3.28
3.28
3.28
3.64
3.28
3.28
3.28
3.28
3.28
3.28
3.28
3.28
3.28
3.28
3.28
3.28
3.47
3.28
3.74
3.28
3.28
3.44
3.28
3.28
3.28
3.14
3.28
3.28
3.28
3.62
3.29
3.28
3.28
4.1
3.51
2.89
3.28
10014:
3.29
4.29
3.19
3.75
3.19
10015:
3.81
3.38
3.81
3.81
3.81
3.51
3.81
3.81
3.75
3.29
3.78
3.6
3.81
3.81
3.86
3.81
3.81
3.89
3.81
3.81
4.98
3.87
4.16
3.81
3.0
3.4
3.81
3.62
10016:
2.9
2.62
2.75
2.9
3.72
10017:
2.98
2.98
2.98
10018:
4.2
3.79
3.16
3.4
3.65
3.65
3.65
3.65
2.83
3.81
3.65
3.8
3.65
3.65
3.65
3.64
3.65
3.6
3.65
3.65
3.88
3.65
3.84
3.91
3.65
3.65
3.65
3.65
3.68
3.88
10019:
3.4
3.4
3.4
3.4
4.59
4.0
3.75
3.07
4.03
3.51
4.13
3.25
3.29
3.4
3.73
3.67
3.78
3.4
3.4
4.1
3.4
3.4
3.4
3.4
4.16
3.7
3.4
3.43
3.4
3.73
3.4
3.4
3.4
3.4
3.43
3.4
2.92
3.4
3.4
3.89
4.25
3.99
3.4
3.4
3.4
3.4
3.4
3.96
3.4
3.4
3.4
3.4
3.92
3.44
2.21
2.6
3.12
3.4
4.07
3.39
3.12
3.4
3.92
3.5
3.4
5.0
3.4
4.94
3.61
1002:
3.44
3.16
3.48
3.44
3.44
3.44
4.17
3.44
3.64
3.44
3.92
3.56
3.44
3.44
10020:
3.8
3.83
3.83
3.83
3.77
3.83
3.83
3.83
3.83
3.81
3.83
4.36
3.83
3.72
3.83
3.83
3.98
3.55
3.93
3.83
3.83
3.83
3.83
3.83
3.41
2.33
3.96
10021:
2.92
2.0
2.0
3.75
10022:
2.61
3.47
3.25
3.16
3.82
3.16
2.95
3.0
10023:
3.65
3.65
3.65
3.59
4.82
3.58
3.65
3.74
3.65
3.65
4.42
10024:
3.42
3.42
3.63
3.77
3.63
3.42
3.42
3.47
3.42
3.7
10025:
3.14
10027:
4.41
3.83
3.83
3.83
2.86
3.56
3.51
4.2
3.15
4.05
3.7
3.83
3.89
3.83
3.83
4.1
3.83
3.87
3.83
3.83
3.83
3.72
3.72
3.72
3.83
3.83
3.83
3.83
4.82
3.83
3.83
3.83
3.14
3.62
3.99
4.02
4.28
3.83
3.83
3.56
4.02
4.04
4.94
3.6
3.83
3.83
3.83
3.83
3.83
3.83
3.83
4.15
3.65
3.83
3.83
3.83
3.83
3.83
4.26
3.83
3.83
3.83
3.91
3.83
3.83
4.77
3.83
3.83
3.16
3.83
3.94
3.83
3.93
3.83
4.4
3.83
3.99
3.77
2.8
3.66
3.83
3.83
3.2
3.68
3.83
4.18
3.83
3.83
10028:
2.97
2.97
2.97
4.51
4.82
2.97
4.82
10029:
3.08
3.88
4.41
3.08
10031:
3.27
3.27
3.27
2.76
4.38
3.27
3.27
3.27
3.27
10032:
3.67
4.83
3.96
3.67
3.83
3.67
3.67
3.67
3.74
2.42
3.67
3.97
4.26
3.54
3.92
2.8
3.67
3.67
3.59
3.66
3.67
3.67
3.67
4.0
3.67
3.67
3.5
3.67
4.39
3.67
3.74
3.67
3.9
3.67
3.67
3.67
3.67
3.67
3.51
3.67
3.67
3.64
3.41
3.01
3.67
3.67
3.67
10033:
4.17
3.46
3.09
3.92
3.09
3.17
3.09
3.09
3.9
3.09
4.04
3.09
5.0
3.73
10034:
2.6
3.72
10035:
3.01
4.34
4.4
4.02
4.08
4.02
4.02
4.02
4.02
4.02
3.83
3.74
3.72
4.02
4.02
4.02
4.02
4.02
4.02
4.91
10036:
3.82
3.82
3.43
3.18
3.78
3.82
2.89
3.82
3.17
3.43
3.82
3.63
3.82
3.82
4.19
3.85
3.82
3.83
3.03
2.95
3.82
3.82
4.59
3.82
3.71
3.97
3.82
3.82
3.8
3.82
3.82
2.98
2.86
3.49
3.03
3.48
3.82
3.82
3.56
3.82
3.27
3.82
4.0
3.82
3.8
3.92
3.82
4.8
3.82
3.89
3.82
3.82
3.65
3.29
3.82
3.82
3.82
4.78
3.82
3.82
3.82
4.09
3.82
4.1
3.82
4.14
3.64
3.82
3.72
3.82
4.56
3.88
3.82
3.82
3.82
3.99
3.82
3.82
3.82
3.82
3.82
3.43
3.82
3.82
2.74
3.82
3.82
3.82
3.82
3.61
3.82
3.82
3.57
3.93
3.59
3.15
3.15
3.82
3.35
3.82
3.95
3.36
3.57
4.36
3.82
3.27
3.99
3.39
3.82
3.75
3.82
3.26
3.7
3.82
3.82
3.82
4.19
3.27
3.4
3.82
3.6
3.82
3.82
3.43
3.82
3.82
3.82
3.82
3.82
3.82
4.13
3.82
3.82
4.65
3.82
3.41
3.82
3.82
3.92
3.82
4.17
3.82
3.82
3.82
3.82
4.22
3.82
4.24
3.82
3.82
3.82
4.6
3.71
3.49
3.82
3.82
3.82
3.73
3.82
3.82
3.82
3.82
3.82
3.82
3.82
3.82
3.88
4.06
3.82
3.82
3.97
3.4
3.82
3.58
3.82
3.82
3.82
3.82
3.82
4.07
3.58
3.82
3.82
3.74
4.59
3.82
3.82
3.4
3.85
3.82
3.82
3.11
3.8
4.57
3.97
3.22
3.82
3.82
3.82
3.82
3.82
3.82
3.4
3.72
2.55
3.82
3.82
3.82
3.82
3.82
3.82
3.82
4.26
3.82
3.53
10037:
4.31
3.23
3.23
3.23
3.67
3.7
3.58
3.18
3.41
3.7
3.58
3.58
3.23
3.23
10038:
4.52
3.08
3.08
3.08
3.08
3.61
3.61
3.22
10039:
2.56
1004:
3.05
2.85
3.05
3.05
3.05
3.05
3.32
3.05
3.05
3.05
3.05
3.59
3.47
3.46
3.06
2.71
3.2
3.05
3.05
3.05
3.05
3.3
3.05
2.1
2.81
2.61
3.05
3.27
3.05
3.05
3.21
10040:
3.38
2.91
3.66
10041:
3.81
3.08
3.08
2.52
3.56
3.08
4.1
3.08
2.3
3.08
1.69
3.08
3.83
3.08
3.08
3.57
3.08
3.08
3.08
2.88
3.35
3.08
3.11
3.33
3.08
2.95
3.08
3.08
3.71
3.15
3.08
10042:
4.12
4.5
4.5
4.5
4.5
4.5
4.5
4.5
4.5
3.49
4.5
4.5
4.5
4.5
4.08
4.5
3.73
4.5
4.5
4.5
4.5
4.5
3.54
4.5
4.5
4.41
4.5
4.5
4.5
4.5
4.5
4.5
4.5
4.5
4.13
4.5
4.5
4.5
3.88
4.5
4.5
4.5
3.53
3.34
4.5
4.33
4.5
3.76
3.92
3.78
4.5
4.28
4.36
2.52
4.5
4.5
4.5
4.14
3.72
4.5
4.5
4.5
4.09
4.5
3.59
3.12
4.5
4.32
4.34
4.5
4.5
4.5
4.5
4.5
3.67
4.5
4.29
4.5
4.05
4.5
4.5
4.16
4.5
4.01
4.33
4.5
4.09
4.18
3.12
4.25
4.5
4.13
4.5
4.5
3.7
4.5
4.5
4.5
4.5
4.5
4.5
4.27
4.5
4.5
4.18
4.5
4.5
4.06
4.5
4.5
4.35
4.5
4.5
4.5
4.5
4.5
4.5
3.77
4.5
4.38
4.5
4.5
4.08
4.48
4.5
4.63
4.5
4.5
4.12
4.5
4.5
4.5
3.72
2.99
4.5
4.5
4.5
4.62
4.5
4.64
4.5
4.51
4.5
4.5
4.5
4.5
4.14
3.62
3.21
4.5
4.5
4.15
4.5
4.5
4.5
4.5
4.5
4.5
4.5
4.2
2.91
4.35
4.5
4.11
3.84
4.5
4.5
3.89
4.5
4.5
4.5
4.5
3.32
4.5
4.29
4.5
4.13
4.5
4.65
4.08
4.5
4.35
4.55
4.5
4.5
4.43
3.43
3.25
4.5
4.29
4.5
4.5
4.5
3.81
4.5
4.5
4.5
4.5
4.5
4.5
4.5
4.2
4.12
4.5
4.5
2.4
4.5
4.5
4.5
3.93
4.5
4.5
4.5
4.5
4.5
4.5
4.49
4.5
4.04
4.5
4.5
4.5
4.5
4.21
4.1
4.18
4.29
4.5
4.09
4.5
4.5
4.5
4.14
4.33
4.37
4.5
4.5
4.5
4.19
4.5
4.5
4.5
4.5
4.5
4.2
4.5
4.5
4.5
4.5
4.5
4.5
4.5
4.84
4.5
4.5
4.18
4.5
4.5
4.07
3.23
4.5
4.5
4.5
4.5
3.63
3.99
4.5
4.5
4.5
4.5
3.93
4.5
3.65
4.5
4.5
3.83
4.5
4.15
4.26
4.5
4.05
4.5
4.24
3.93
4.5
3.95
4.5
4.5
4.5
4.5
4.17
3.96
4.5
4.5
4.5
4.5
4.5
4.5
4.5
4.5
4.19
4.5
4.5
4.1
4.5
4.5
4.5
4.5
4.5
4.5
4.5
4.5
4.5
4.5
4.03
4.33
4.5
4.32
4.5
3.92
4.5
4.5
4.5
4.5
4.5
4.5
4.5
4.5
4.37
4.5
4.5
4.49
4.5
4.5
4.5
4.19
4.5
4.49
4.5
4.34
4.32
4.32
4.5
4.5
4.5
4.5
4.5
4.5
4.5
4.21
4.5
4.5
4.12
4.5
4.5
4.5
4.5
4.5
4.5
4.5
4.18
4.5
4.5
4.5
4.5
4.02
4.5
4.5
4.5
4.5
4.5
4.5
4.5
4.5
4.05
4.49
3.69
4.5
4.15
4.5
4.5
4.11
4.5
4.5
3.91
4.5
4.5
3.57
3.81
4.5
4.5
3.86
4.5
4.5
4.5
4.5
4.09
3.8
4.5
4.5
4.0
3.98
4.5
4.5
4.5
4.5
4.2
4.5
3.7
4.5
4.34
3.78
4.5
4.5
4.5
4.5
3.81
4.5
3.96
3.67
4.6
4.5
4.5
4.41
4.5
3.8
4.5
4.35
4.5
4.5
3.92
4.5
4.5
4.1
4.42
3.7
4.0
4.5
3.91
4.44
4.44
4.35
4.5
4.5
4.24
4.5
4.5
4.5
3.98
3.66
4.5
4.23
4.5
4.5
4.5
4.5
4.5
3.94
4.5
4.23
3.66
4.5
4.5
4.5
4.65
4.5
4.27
3.9
4.18
4.49
4.47
4.03
3.98
4.5
4.44
4.5
4.5
4.39
4.5
4.5
4.5
4.03
3.59
3.84
4.66
4.5
4.36
3.79
4.5
4.5
4.5
4.5
4.5
4.5
4.06
4.5
4.5
4.5
4.5
4.5
4.5
4.5
4.5
3.8
4.5
4.33
4.5
4.25
3.55
4.5
4.5
4.5
4.5
4.5
4.5
4.5
4.5
4.28
4.5
3.97
4.5
4.5
3.35
4.0
4.52
4.5
4.03
4.5
4.5
4.5
4.5
4.5
4.5
4.22
4.5
4.5
4.52
4.5
4.29
4.05
3.79
4.5
4.5
4.5
4.5
4.66
3.73
4.5
4.5
4.07
4.5
4.5
4.5
1.5
4.5
4.5
4.5
4.5
4.5
4.5
4.5
3.81
4.5
4.5
4.5
4.5
4.01
4.5
4.5
3.1
4.5
2.82
3.19
4.34
4.5
4.08
4.5
3.0
4.5
4.06
4.51
4.5
4.5
3.85
3.95
4.14
3.53
4.5
4.5
4.5
4.21
4.5
4.5
4.5
4.5
3.72
4.5
4.5
4.5
4.5
4.5
4.5
4.05
3.42
3.61
4.5
3.6
4.5
4.5
4.5
4.5
4.5
4.62
4.15
4.5
4.5
4.5
4.54
4.5
3.83
3.76
4.03
4.44
4.5
4.5
4.5
4.5
2.99
4.5
4.5
4.1
4.5
4.5
4.5
4.5
4.5
4.52
4.5
4.2
4.5
4.5
4.5
4.16
4.5
4.5
4.23
4.5
3.59
4.5
4.5
4.5
4.5
4.5
4.5
4.32
4.5
4.0
4.5
4.5
4.13
4.5
4.32
3.65
4.5
4.04
4.5
4.5
4.5
4.5
4.5
4.5
4.5
4.5
4.5
4.59
4.5
4.5
4.11
4.5
3.9
4.41
4.5
4.5
4.5
4.5
3.94
4.5
4.64
4.5
3.92
4.5
4.5
4.5
4.5
4.5
4.5
4.5
4.5
4.5
4.5
4.5
3.5
4.5
4.17
4.5
4.5
4.01
3.94
3.84
4.5
3.67
3.82
3.85
4.29
4.5
4.32
4.5
4.5
4.5
4.5
4.5
4.5
4.4
4.5
3.71
4.5
4.13
3.43
2.41
4.5
4.5
4.07
4.3
3.86
4.5
4.5
4.5
4.5
4.5
4.5
3.74
4.5
4.5
4.5
4.5
4.5
4.18
4.5
4.2
4.43
3.41
4.29
4.2
4.5
4.14
4.5
0.84
