...
----------------------------------------------------------------------
Ran 3 tests in 2.440s

OK
Name             Stmts   Miss Branch BrPart  Cover   Missing
------------------------------------------------------------
Netflix.py          39      3      6      1    91%   26-29, 22->26
TestNetflix.py      26      0      0      0   100%
------------------------------------------------------------
TOTAL               65      3      6      1    94%
